<?xml version="1.0" encoding="UTF-8" standalone="no"?>
<!-- Created with Inkscape (http://www.inkscape.org/) -->

<svg
   xmlns:dc="http://purl.org/dc/elements/1.1/"
   xmlns:cc="http://creativecommons.org/ns#"
   xmlns:rdf="http://www.w3.org/1999/02/22-rdf-syntax-ns#"
   xmlns:svg="http://www.w3.org/2000/svg"
   xmlns="http://www.w3.org/2000/svg"
   xmlns:xlink="http://www.w3.org/1999/xlink"
   xmlns:sodipodi="http://sodipodi.sourceforge.net/DTD/sodipodi-0.dtd"
   xmlns:inkscape="http://www.inkscape.org/namespaces/inkscape"
   width="220mm"
   height="135.814mm"
   viewBox="0 0 220 135.814"
   version="1.1"
   id="svg1804"
   inkscape:version="0.92.4 (5da689c313, 2019-01-14)"
   sodipodi:docname="fscilogo.svg">
  <defs
     id="defs1798">
    <linearGradient
       inkscape:collect="always"
       id="linearGradient1458">
      <stop
         style="stop-color:#ff9933;stop-opacity:1"
         offset="0"
         id="stop1454" />
      <stop
         style="stop-color:#138808;stop-opacity:0.74015749"
         offset="1"
         id="stop1456" />
    </linearGradient>
    <linearGradient
       inkscape:collect="always"
       xlink:href="#linearGradient1458"
       id="linearGradient1460"
       x1="-62.548117"
       y1="113.76142"
       x2="165.99142"
       y2="113.76142"
       gradientUnits="userSpaceOnUse" />
  </defs>
  <sodipodi:namedview
     id="base"
     pagecolor="#ffffff"
     bordercolor="#666666"
     borderopacity="1.0"
     inkscape:pageopacity="0.0"
     inkscape:pageshadow="2"
     inkscape:zoom="1.0576218"
     inkscape:cx="396.47496"
     inkscape:cy="221.8367"
     inkscape:document-units="mm"
     inkscape:current-layer="layer1"
     showgrid="false"
     inkscape:window-width="1920"
     inkscape:window-height="1056"
     inkscape:window-x="0"
     inkscape:window-y="0"
     inkscape:window-maximized="0"
     inkscape:snap-global="false" />
  <metadata
     id="metadata1801">
    <rdf:RDF>
      <cc:Work
         rdf:about="">
        <dc:format>image/svg+xml</dc:format>
        <dc:type
           rdf:resource="http://purl.org/dc/dcmitype/StillImage" />
        <dc:title />
      </cc:Work>
    </rdf:RDF>
  </metadata>
  <g
     inkscape:label="Layer 1"
     inkscape:groupmode="layer"
     id="layer1"
     transform="translate(94.685774,-181.9294)">
    <g
       transform="translate(-36.407424,136.07498)"
       id="g1436"
       style="fill-opacity:1;fill:url(#linearGradient1460);opacity:1;">
      <path
         style="fill:url(#linearGradient1460);fill-opacity:1;stroke:none;stroke-width:0.19271298px;stroke-linecap:butt;stroke-linejoin:miter;stroke-opacity:1"
         d="m -2.8067508,46.28068 c 10.3243,0.783 32.0618998,-3.7186 43.8090998,5.4878 9.6313,7.5482 20.9522,29.8821 34.293,25.961401 8.7564,-2.573502 13.3259,-13.433301 22.6227,-15.619101 4.736101,-1.113599 9.970801,1.962301 14.184101,3.7992 -21.579301,13.5767 -21.657901,62.98361 -52.842501,73.4903 -20.409,6.876 -39.498,6.0296 -56.3691978,23.87951 1.801098,-18.3769 81.4724978,-62.73961 -5.697202,-116.99911 z"
         id="path1430"
         inkscape:connector-curvature="0"
         sodipodi:nodetypes="ccsccscc"
         inkscape:export-xdpi="300.04999"
         inkscape:export-ydpi="300.04999" />
      <path
         style="fill:url(#linearGradient1460);fill-opacity:1;stroke:none;stroke-width:0.40613118;stroke-linecap:butt;stroke-linejoin:miter;stroke-miterlimit:4;stroke-dasharray:none;stroke-opacity:1"
         d="m -19.85205,78.20448 -38.4263,38.5011 v 26.46041 l 38.4263,38.5024 v -26.4604 l -25.222502,-25.27151 25.222502,-25.2716 z"
         id="path1432"
         inkscape:connector-curvature="0"
         inkscape:export-xdpi="300.04999"
         inkscape:export-ydpi="300.04999" />
      <path
         style="fill:url(#linearGradient1460);fill-opacity:1;stroke:none;stroke-width:0.40613118;stroke-linecap:butt;stroke-linejoin:miter;stroke-miterlimit:4;stroke-dasharray:none;stroke-opacity:1"
         d="m 123.29545,78.204382 v 26.459098 l 25.2225,25.2716 -25.2225,25.27291 v 26.4604 l 38.4262,-38.5024 v -26.46041 z"
         id="path1434"
         inkscape:connector-curvature="0"
         inkscape:export-xdpi="300.04999"
         inkscape:export-ydpi="300.04999" />
    </g>
  </g>
</svg>
